{
    "name": "work_osm",
    "profile": "raster-data-resource",
    "datapackage_version": "1.0",
    "version": "0.18.0",
    "created": "2023-08-09 14:36:54",
    "title": "Workplaces from Open Street Map",
    "description": "Worplaces density from Open Street Map",
    "keywords": [
        "EUROPE",
        "EV",
        "commuting"
    ],
    "licenses": [
        {
            "name": "CC-BY-4.0",
            "path": "https://creativecommons.org/licenses/by/4.0/",
            "title": "Creative Commons Attribution 4.0"
        }
    ],
    "sources": [
        {
            "name": "",
            "path": ""
        }
    ],
    "contributors": [
        {
            "title": "Noémie Jeannin",
            "email": "noemie.jeannin@epfl.ch",
            "role": "author",
            "organization": "EPFL"
        }
    ],
    "id": "n68be522-dabf-3973-4262-54bedad47250",
    "resources": [
        {
            "name": "work_osm",
            "title": "Workplaces from Open Street Map",
            "path": "data/work_osm.tif",
            "unit": "",
            "description": "Workplaces from Open Street Map",
            "temporal": {
                "start": "2023-08-08 00:00:00",
                "end": "2023-08-08 24:00:00"
            },
            "format": "tif",
            "bytes": "5534",
            "raster": {
                "epsg": "3035",
                "num_of_bands": 1,
                "extent": {
                    "minx": 944000.0,
                    "miny": 938000.0,
                    "maxx": 6528000.0,
                    "maxy": 5414000.0
                },
                "resolution": {
                    "xRes": 100.0,
                    "yRes": -100.0
                },
                "dimension": {
                    "columns": 55840,
                    "rows": 44760
                },
                "origin": [
                    944000.0,
                    5414000.0
                ],
                "transformation": {
                    "operator": "*",
                    "value": 1.0
                },
                "nodata": 0.0,
                "band1": {
                    "statistics": {
                        "min": 9.692199931521372e-09,
                        "max": 1103.428466796875,
                        "mean": 11.841352455184191,
                        "Stdev": 26.175025883069708
                    }
                }
            }
        }
    ]
}
